{
	"ImportPath": "zz.com/rezt",
	"GoVersion": "go1.3.1",
	"Deps": [
		{
			"ImportPath": "github.com/ant0ine/go-json-rest/rest",
			"Comment": "v2.0.6-6-g9b7c1be",
			"Rev": "9b7c1be01fbde5d3aea2ee4b5ae178825d4bbf8f"
		}
	]
}
